[
  {
    "account": "0x7Ee19B481E99D350531296564FDC9d818e5FF2F5",
    "key": "6ad5477964bc86bee1a459efc861ef46ad42d3df03d1c02ac3c6a5a4a284952d"
  },
  {
    "account": "0x1890dbe6255a3B29a39B32A2eb415897f1e4768b",
    "key": "05154b753232c72c6f78b5c98092d4217c898bd8000e81f338740f51b37aea40"
  },
  {
    "account": "0xD28Ec08C5AbA501Faf72C795926a9384aEbe009c",
    "key": "aa89d57c41246da11bd7814750b3342eaca70fee9dc3f7fc75867cd6d7ff21ee"
  },
  {
    "account": "0x69Ba7542129D1E12d6d790425e7E07B2DF61F80b",
    "key": "b88d71c16a593f8e08524d322a5e6ed83e91898d437e6e13acd044bb7960ec1c"
  },
  {
    "account": "0x841fCC8a3e0dCB62f00E75B579A32081DD5266B1",
    "key": "1e8d2c29cb20f75447157904f701d61e65f7eae149581dab570962b396a75eb1"
  },
  {
    "account": "0x7Ee57222fc91Ef3F4cF8B3322420AdB8f379886e",
    "key": "171038cd5cff22839db386ef8d84bb59423879a38d3463fa7f15c9a5f010a815"
  },
  {
    "account": "0xfB25b7D5eA07B4fBcd209dfa3295C2c9BA703D5a",
    "key": "73a881a6d833227f95d2de7e8bde52de3e2ab2b84e8856b40ef884707f743e6f"
  },
  {
    "account": "0xBAa6bD5230BB50f6637d820fB353FEB06252E0B8",
    "key": "10f17bc8cc39c50c252cb959f221791241fc4fa260c7e3001375370dba6ebb5c"
  },
  {
    "account": "0x6faDd372bd96B621030c917012e3f3A5a7342CA8",
    "key": "df83e37cad8258f6607bd9984afdb92e130bbe510e10e22f684d055a644759c8"
  },
  {
    "account": "0x93fc1FC1BD9026c6819aD428119850700C1e4742",
    "key": "7ea6d8359fc09e1f911192c3f861234db303e55ae39b10fa752aff985385d908"
  }
]
